<svg xmlns="http://www.w3.org/2000/svg" width="13" height="18" viewBox="0 0 13 18">
    <path fill="none" fill-rule="nonzero" stroke="#D29751" d="M6.5 1.085C3.462 1.085 1 3.209 1 6.348c0 1.131.345 1.963.873 2.862L6.5 17.085l4.627-7.875c.528-.899.873-1.73.873-2.862 0-3.14-2.462-5.263-5.5-5.263zm0 2.947c1.337 0 2.42 1.037 2.42 2.316S7.837 8.664 6.5 8.664 4.08 7.627 4.08 6.348c0-1.28 1.083-2.316 2.42-2.316z"/>
</svg>
