<svg xmlns="http://www.w3.org/2000/svg" width="28" height="28" viewBox="0 0 28 28">
    <g fill="none" fill-rule="evenodd" stroke="#D5B56F" stroke-width="1.6" transform="translate(1 1)">
        <circle cx="13" cy="13" r="13"/>
        <path stroke-linecap="square" d="M13 4.333v9.455M18.515 18.515L13 13.788"/>
    </g>
</svg>
